Portfolio_1 - TidyTemplate
…
$nyt_titles
# A tibble: 7,431 × 8
      id title                   author  year total…¹ first_week debut…² best_…³
   <dbl> <chr>                   <chr>  <dbl>   <dbl> <date>       <dbl>   <dbl>
 1     0 "\"H\" IS FOR HOMICIDE" Sue G…  1991      15 1991-05-05       1       2
 2     1 "\"I\" IS FOR INNOCENT" Sue G…  1992      11 1992-04-26      14       2
 3    10 "''G'' IS FOR GUMSHOE"  Sue G…  1990       6 1990-05-06       4       8
 4   100 "A DOG'S JOURNEY"       W. Br…  2012       1 2012-05-27       3      14
 5  1000 "CHANGING FACES"        Kimbe…  2006       1 2006-02-19      11      14
 6  1001 "CHAOS"                 Patri…  2016       3 2016-12-04       1       7
 7  1002 "CHAPTERHOUSE: DUNE"    Frank…  1985      16 1985-04-21       9       2
 8  1003 "CHARADE"               Sandr…  1994       5 1994-05-01       7      10
 9  1004 "CHARLESTON"            John …  2002       4 2002-08-25       7      12
10  1005 "CHARLOTTE GRAY"        Sebas…  1999       1 1999-03-14      12      17
# … with 7,421 more rows, and abbreviated variable names ¹​total_weeks,
#   ²​debut_rank, ³​best_rank

$nyt_full
# A tibble: 60,386 × 1
   `year\tweek\trank\ttitle_id\ttitle\tauthor`                            
   <chr>                                                                  
 1 "1931\t1931-10-12\t1\t6477\tTHE TEN COMMANDMENTS\tWarwick Deeping"     
 2 "1931\t1931-10-12\t2\t1808\tFINCHE'S FORTUNE\tMazo de la Roche"        
 3 "1931\t1931-10-12\t3\t5304\tTHE GOOD EARTH\tPearl S. Buck"             
 4 "1931\t1931-10-12\t4\t4038\tSHADOWS ON THE ROCK\tWilla Cather"         
 5 "1931\t1931-10-12\t5\t3946\tSCARMOUCHE THE KING MAKER\tRafael Sabatini"
 6 "1931\t1931-11-16\t1\t2878\tMAID IN WAITING\tJohn Galsworthy"          
 7 "1931\t1931-11-16\t2\t7031\tTWO PEOPLE\tA. A. Milne"                   
 8 "1931\t1931-11-16\t3\t413\tAMERICAN BEAUTY\tEdna Ferber"               
 9 "1931\t1931-11-16\t4\t859\tBROOME STAGES\tClemance Dane"               
10 "1931\t1931-11-16\t5\t4235\tSPARKS FLY UPWARD\tOliver LaFarge"         
# … with 60,376 more rows
…
